/home/kiennd/dev/vnua/project_1/group01-03project1/04-Source/Back-end/project/src/main/java/com/fita/project/dto/UserDTO.java
/home/kiennd/dev/vnua/project_1/group01-03project1/04-Source/Back-end/project/src/main/java/com/fita/project/repository/CategoryRepository.java
/home/kiennd/dev/vnua/project_1/group01-03project1/04-Source/Back-end/project/src/main/java/com/fita/project/repository/entity/RoleFunction.java
/home/kiennd/dev/vnua/project_1/group01-03project1/04-Source/Back-end/project/src/main/java/com/fita/project/controller/CategoryController.java
/home/kiennd/dev/vnua/project_1/group01-03project1/04-Source/Back-end/project/src/main/java/com/fita/project/service/impl/TestService.java
/home/kiennd/dev/vnua/project_1/group01-03project1/04-Source/Back-end/project/src/main/java/com/fita/project/dto/DepartmentDTO.java
/home/kiennd/dev/vnua/project_1/group01-03project1/04-Source/Back-end/project/src/main/java/com/fita/project/repository/LecturerRepository.java
/home/kiennd/dev/vnua/project_1/group01-03project1/04-Source/Back-end/project/src/main/java/com/fita/project/repository/CourseRepository.java
/home/kiennd/dev/vnua/project_1/group01-03project1/04-Source/Back-end/project/src/main/java/com/fita/project/repository/entity/YearSemester.java
/home/kiennd/dev/vnua/project_1/group01-03project1/04-Source/Back-end/project/src/main/java/com/fita/project/controller/SubjectController.java
/home/kiennd/dev/vnua/project_1/group01-03project1/04-Source/Back-end/project/src/main/java/com/fita/project/repository/entity/Department.java
/home/kiennd/dev/vnua/project_1/group01-03project1/04-Source/Back-end/project/src/main/java/com/fita/project/repository/entity/User.java
/home/kiennd/dev/vnua/project_1/group01-03project1/04-Source/Back-end/project/src/main/java/com/fita/project/dto/RoleFunctionDTO.java
/home/kiennd/dev/vnua/project_1/group01-03project1/04-Source/Back-end/project/src/main/java/com/fita/project/repository/entity/Role.java
/home/kiennd/dev/vnua/project_1/group01-03project1/04-Source/Back-end/project/src/main/java/com/fita/project/service/CourseService.java
/home/kiennd/dev/vnua/project_1/group01-03project1/04-Source/Back-end/project/src/main/java/com/fita/project/config/jwt/JwtTokenUtil.java
/home/kiennd/dev/vnua/project_1/group01-03project1/04-Source/Back-end/project/src/main/java/com/fita/project/controller/DepartmentController.java
/home/kiennd/dev/vnua/project_1/group01-03project1/04-Source/Back-end/project/src/main/java/com/fita/project/controller/AuthenticationController.java
/home/kiennd/dev/vnua/project_1/group01-03project1/04-Source/Back-end/project/src/main/java/com/fita/project/dto/reponse/UserResponse.java
/home/kiennd/dev/vnua/project_1/group01-03project1/04-Source/Back-end/project/src/main/java/com/fita/project/dto/FunctionDTO.java
/home/kiennd/dev/vnua/project_1/group01-03project1/04-Source/Back-end/project/src/main/java/com/fita/project/controller/ImageController.java
/home/kiennd/dev/vnua/project_1/group01-03project1/04-Source/Back-end/project/src/main/java/com/fita/project/service/UserService.java
/home/kiennd/dev/vnua/project_1/group01-03project1/04-Source/Back-end/project/src/main/java/com/fita/project/repository/RoleRepository.java
/home/kiennd/dev/vnua/project_1/group01-03project1/04-Source/Back-end/project/src/main/java/com/fita/project/dto/StudentDTO.java
/home/kiennd/dev/vnua/project_1/group01-03project1/04-Source/Back-end/project/src/main/java/com/fita/project/ServletInitializer.java
/home/kiennd/dev/vnua/project_1/group01-03project1/04-Source/Back-end/project/src/main/java/com/fita/project/repository/ProjectMemberRepository.java
/home/kiennd/dev/vnua/project_1/group01-03project1/04-Source/Back-end/project/src/main/java/com/fita/project/repository/YearSemesterRepository.java
/home/kiennd/dev/vnua/project_1/group01-03project1/04-Source/Back-end/project/src/main/java/com/fita/project/repository/StudentRepository.java
/home/kiennd/dev/vnua/project_1/group01-03project1/04-Source/Back-end/project/src/main/java/com/fita/project/service/impl/SubjectServiceImpl.java
/home/kiennd/dev/vnua/project_1/group01-03project1/04-Source/Back-end/project/src/main/java/com/fita/project/service/SubjectService.java
/home/kiennd/dev/vnua/project_1/group01-03project1/04-Source/Back-end/project/src/main/java/com/fita/project/dto/LecturerDTO.java
/home/kiennd/dev/vnua/project_1/group01-03project1/04-Source/Back-end/project/src/main/java/com/fita/project/controller/ProjectController.java
/home/kiennd/dev/vnua/project_1/group01-03project1/04-Source/Back-end/project/src/main/java/com/fita/project/service/impl/ImageServiceImpl.java
/home/kiennd/dev/vnua/project_1/group01-03project1/04-Source/Back-end/project/src/main/java/com/fita/project/service/impl/ProjectServiceImpl.java
/home/kiennd/dev/vnua/project_1/group01-03project1/04-Source/Back-end/project/src/main/java/com/fita/project/dto/ProjectMemberDTO.java
/home/kiennd/dev/vnua/project_1/group01-03project1/04-Source/Back-end/project/src/main/java/com/fita/project/controller/RoleController.java
/home/kiennd/dev/vnua/project_1/group01-03project1/04-Source/Back-end/project/src/main/java/com/fita/project/dto/YearDTO.java
/home/kiennd/dev/vnua/project_1/group01-03project1/04-Source/Back-end/project/src/main/java/com/fita/project/repository/entity/Project.java
/home/kiennd/dev/vnua/project_1/group01-03project1/04-Source/Back-end/project/src/main/java/com/fita/project/repository/entity/Category.java
/home/kiennd/dev/vnua/project_1/group01-03project1/04-Source/Back-end/project/src/main/java/com/fita/project/service/ImageService.java
/home/kiennd/dev/vnua/project_1/group01-03project1/04-Source/Back-end/project/src/main/java/com/fita/project/dto/CourseDTO.java
/home/kiennd/dev/vnua/project_1/group01-03project1/04-Source/Back-end/project/src/main/java/com/fita/project/service/RoleService.java
/home/kiennd/dev/vnua/project_1/group01-03project1/04-Source/Back-end/project/src/main/java/com/fita/project/controller/UserController.java
/home/kiennd/dev/vnua/project_1/group01-03project1/04-Source/Back-end/project/src/main/java/com/fita/project/controller/YearSemesterController.java
/home/kiennd/dev/vnua/project_1/group01-03project1/04-Source/Back-end/project/src/main/java/com/fita/project/repository/entity/Function.java
/home/kiennd/dev/vnua/project_1/group01-03project1/04-Source/Back-end/project/src/main/java/com/fita/project/repository/UserRepository.java
/home/kiennd/dev/vnua/project_1/group01-03project1/04-Source/Back-end/project/src/main/java/com/fita/project/controller/CourseController.java
/home/kiennd/dev/vnua/project_1/group01-03project1/04-Source/Back-end/project/src/main/java/com/fita/project/config/jwt/JwtRequest.java
/home/kiennd/dev/vnua/project_1/group01-03project1/04-Source/Back-end/project/src/main/java/com/fita/project/repository/entity/ProjectMember.java
/home/kiennd/dev/vnua/project_1/group01-03project1/04-Source/Back-end/project/src/main/java/com/fita/project/ProjectApplication.java
/home/kiennd/dev/vnua/project_1/group01-03project1/04-Source/Back-end/project/src/main/java/com/fita/project/repository/FunctionRepository.java
/home/kiennd/dev/vnua/project_1/group01-03project1/04-Source/Back-end/project/src/main/java/com/fita/project/dto/ProjectDTO.java
/home/kiennd/dev/vnua/project_1/group01-03project1/04-Source/Back-end/project/src/main/java/com/fita/project/repository/DepartmentRepository.java
/home/kiennd/dev/vnua/project_1/group01-03project1/04-Source/Back-end/project/src/main/java/com/fita/project/service/impl/RoleServiceImpl.java
/home/kiennd/dev/vnua/project_1/group01-03project1/04-Source/Back-end/project/src/main/java/com/fita/project/dto/YearSemesterDTO.java
/home/kiennd/dev/vnua/project_1/group01-03project1/04-Source/Back-end/project/src/main/java/com/fita/project/dto/CategoryDTO.java
/home/kiennd/dev/vnua/project_1/group01-03project1/04-Source/Back-end/project/src/main/java/com/fita/project/config/jwt/JwtRequestFilter.java
/home/kiennd/dev/vnua/project_1/group01-03project1/04-Source/Back-end/project/src/main/java/com/fita/project/repository/entity/Student.java
/home/kiennd/dev/vnua/project_1/group01-03project1/04-Source/Back-end/project/src/main/java/com/fita/project/dto/RoleDTO.java
/home/kiennd/dev/vnua/project_1/group01-03project1/04-Source/Back-end/project/src/main/java/com/fita/project/repository/RoleFunctionRepository.java
/home/kiennd/dev/vnua/project_1/group01-03project1/04-Source/Back-end/project/src/main/java/com/fita/project/repository/ProjectRepository.java
/home/kiennd/dev/vnua/project_1/group01-03project1/04-Source/Back-end/project/src/main/java/com/fita/project/service/impl/UserServiceImpl.java
/home/kiennd/dev/vnua/project_1/group01-03project1/04-Source/Back-end/project/src/main/java/com/fita/project/service/YearSemesterService.java
/home/kiennd/dev/vnua/project_1/group01-03project1/04-Source/Back-end/project/src/main/java/com/fita/project/service/impl/CategoryServiceImpl.java
/home/kiennd/dev/vnua/project_1/group01-03project1/04-Source/Back-end/project/src/main/java/com/fita/project/config/WebSecurityConfig.java
/home/kiennd/dev/vnua/project_1/group01-03project1/04-Source/Back-end/project/src/main/java/com/fita/project/service/ProjectService.java
/home/kiennd/dev/vnua/project_1/group01-03project1/04-Source/Back-end/project/src/main/java/com/fita/project/dto/response/BaseResponse.java
/home/kiennd/dev/vnua/project_1/group01-03project1/04-Source/Back-end/project/src/main/java/com/fita/project/repository/entity/Course.java
/home/kiennd/dev/vnua/project_1/group01-03project1/04-Source/Back-end/project/src/main/java/com/fita/project/service/impl/YearSemesterServiceImpl.java
/home/kiennd/dev/vnua/project_1/group01-03project1/04-Source/Back-end/project/src/main/java/com/fita/project/repository/SubjectRepository.java
/home/kiennd/dev/vnua/project_1/group01-03project1/04-Source/Back-end/project/src/main/java/com/fita/project/service/CategoryService.java
/home/kiennd/dev/vnua/project_1/group01-03project1/04-Source/Back-end/project/src/main/java/com/fita/project/config/AppConfig.java
/home/kiennd/dev/vnua/project_1/group01-03project1/04-Source/Back-end/project/src/main/java/com/fita/project/dto/reponse/BaseResponse.java
/home/kiennd/dev/vnua/project_1/group01-03project1/04-Source/Back-end/project/src/main/java/com/fita/project/dto/response/ImageResponse.java
/home/kiennd/dev/vnua/project_1/group01-03project1/04-Source/Back-end/project/src/main/java/com/fita/project/repository/entity/Lecturer.java
/home/kiennd/dev/vnua/project_1/group01-03project1/04-Source/Back-end/project/src/main/java/com/fita/project/service/impl/DepartmentServiceImpl.java
/home/kiennd/dev/vnua/project_1/group01-03project1/04-Source/Back-end/project/src/main/java/com/fita/project/config/jwt/JwtResponse.java
/home/kiennd/dev/vnua/project_1/group01-03project1/04-Source/Back-end/project/src/main/java/com/fita/project/service/impl/CourseServiceImpl.java
/home/kiennd/dev/vnua/project_1/group01-03project1/04-Source/Back-end/project/src/main/java/com/fita/project/repository/entity/Subject.java
/home/kiennd/dev/vnua/project_1/group01-03project1/04-Source/Back-end/project/src/main/java/com/fita/project/dto/SubjectDTO.java
/home/kiennd/dev/vnua/project_1/group01-03project1/04-Source/Back-end/project/src/main/java/com/fita/project/dto/reponse/RoleResponse.java
/home/kiennd/dev/vnua/project_1/group01-03project1/04-Source/Back-end/project/src/main/java/com/fita/project/config/jwt/JwtAuthenticationEntryPoint.java
/home/kiennd/dev/vnua/project_1/group01-03project1/04-Source/Back-end/project/src/main/java/com/fita/project/service/DepartmentService.java
